{
  "type": "minecraft:crafting_shaped",
  "pattern": [
    " I",
    "SI"
  ],
  "key": {
    "I": {
      "item": "minecraft:iron_ingot"
    },
    "S": {
      "item": "minecraft:stick"
    }
  },
  "result": {
    "item": "bread:knife"
  }
}