{
  "forge_marker": 1,
  "defaults": {
    "textures": {
      "particle": "blocks/log_oak"
    },
    "model": "bread:breadwood_leaves",
    "uvlock": true
  },
  "variants": {
    "normal": [{ }],
    "inventory": [{ }],
        "check_decay=true,decayable=true":[{ }],
        "check_decay=true,decayable=false":[{ }],
        "check_decay=false,decayable=true":[{ }],
        "check_decay=false,decayable=false":[{ }]
  }
}